{
  "parent": "conveyorbelts:block/wood_sloped_conveyor_belt_down",
  "display": {
    "gui": {
      "rotation": [
        20,
        -40,
        0
      ],
      "translation": [
        0,
        0,
        0
      ],
      "scale": [
        0.5,
        0.5,
        0.5
      ]
    }
  }
}
