{
  "replace": false,
  "values": [
    "conveyorbelts:iron_conveyor_belt",
    "conveyorbelts:iron_sloped_conveyor_belt_up",
    "conveyorbelts:iron_sloped_conveyor_belt_down",
    "conveyorbelts:iron_filter_conveyor_belt",
    "conveyorbelts:iron_robotic_arm",
    "conveyorbelts:iron_filter_robotic_arm",
    "conveyorbelts:gold_conveyor_belt",
    "conveyorbelts:gold_sloped_conveyor_belt_up",
    "conveyorbelts:gold_sloped_conveyor_belt_down",
    "conveyorbelts:gold_filter_conveyor_belt",
    "conveyorbelts:gold_robotic_arm",
    "conveyorbelts:gold_filter_robotic_arm",
    "conveyorbelts:netherite_robotic_arm",
    "conveyorbelts:netherite_filter_robotic_arm"
  ]
}
