{
	"credit": "Made with Blockbench",
	"parent": "block/block",
	"textures": {
		"4": "conveyorbelts:block/black",
		"5": "conveyorbelts:block/gold_conveyor_belt_roof",
		"top": "conveyorbelts:block/gold_conveyor_belt_top_off",
		"side": "conveyorbelts:block/gold_conveyor_belt_side_off",
		"bottom": "conveyorbelts:block/gold_conveyor_belt_bottom",
		"particle": "conveyorbelts:block/gold_conveyor_belt_top_off"
	},
	"elements": [
		{
			"name": "bottom",
			"from": [0, 0, 0],
			"to": [16, 1, 16],
			"faces": {
				"north": {"uv": [15, 0, 16, 16], "rotation": 90, "texture": "#side"},
				"east": {"uv": [0, 0, 1, 16], "rotation": 270, "texture": "#side"},
				"south": {"uv": [15, 0, 16, 16], "rotation": 90, "texture": "#side"},
				"west": {"uv": [0, 0, 1, 16], "rotation": 90, "texture": "#side"},
				"down": {"uv": [0, 0, 16, 16], "texture": "#bottom"}
			}
		},
		{
			"name": "topIn",
			"from": [0, 1, 0],
			"to": [2, 6, 16],
			"faces": {
				"north": {"uv": [11, 0, 16, 2], "rotation": 90, "texture": "#top"},
				"south": {"uv": [11, 14, 16, 16], "rotation": 90, "texture": "#top"},
				"west": {"uv": [11, 0, 16, 16], "rotation": 270, "texture": "#top"},
				"up": {"uv": [0, 0, 2, 16], "texture": "#top"}
			}
		},
		{
			"name": "topMid",
			"from": [2, 1, 2],
			"to": [16, 6, 14],
			"faces": {
				"east": {"uv": [11, 2, 16, 14], "rotation": 90, "texture": "#side"},
				"west": {"uv": [11, 0, 16, 16], "rotation": 270, "texture": "#top"}
			}
		},
		{
			"name": "topOutLeft",
			"from": [2, 1, 0],
			"to": [16, 6, 2],
			"faces": {
				"north": {"uv": [0, 2, 5, 16], "rotation": 90, "texture": "#top"},
				"east": {"uv": [10, 0, 15, 2], "rotation": 90, "texture": "#side"},
				"up": {"uv": [14, 2, 16, 16], "rotation": 270, "texture": "#top"}
			}
		},
		{
			"name": "topOutRight",
			"from": [2, 1, 14],
			"to": [16, 6, 16],
			"faces": {
				"east": {"uv": [10, 14, 15, 16], "rotation": 90, "texture": "#side"},
				"south": {"uv": [0, 0, 5, 14], "rotation": 90, "texture": "#top"},
				"up": {"uv": [14, 0, 16, 14], "rotation": 90, "texture": "#top"}
			}
		},
		{
			"from": [0, 6, 0],
			"to": [2, 11, 2],
			"faces": {
				"north": {"uv": [4, 6, 6, 11], "texture": "#bottom"},
				"east": {"uv": [12, 2, 14, 7], "texture": "#bottom"},
				"south": {"uv": [9, 7, 11, 12], "texture": "#bottom"},
				"west": {"uv": [7, 3, 9, 8], "texture": "#bottom"}
			}
		},
		{
			"from": [0, 6, 14],
			"to": [2, 11, 16],
			"faces": {
				"north": {"uv": [4, 4, 6, 9], "texture": "#bottom"},
				"east": {"uv": [7, 8, 9, 13], "texture": "#bottom"},
				"south": {"uv": [7, 1, 9, 6], "texture": "#bottom"},
				"west": {"uv": [10, 6, 12, 11], "texture": "#bottom"}
			}
		},
		{
			"from": [14, 6, 14],
			"to": [16, 11, 16],
			"faces": {
				"north": {"uv": [11, 9, 13, 14], "texture": "#bottom"},
				"east": {"uv": [11, 0, 13, 5], "texture": "#bottom"},
				"south": {"uv": [7, 7, 9, 12], "texture": "#bottom"},
				"west": {"uv": [3, 5, 5, 10], "texture": "#bottom"}
			}
		},
		{
			"from": [14, 6, 0],
			"to": [16, 11, 2],
			"faces": {
				"north": {"uv": [5, 1, 7, 6], "texture": "#bottom"},
				"east": {"uv": [11, 1, 13, 6], "texture": "#bottom"},
				"south": {"uv": [6, 7, 8, 12], "texture": "#bottom"},
				"west": {"uv": [11, 9, 13, 14], "texture": "#bottom"}
			}
		},
		{
			"from": [2, 6, 2],
			"to": [16, 11, 14],
			"faces": {
				"north": {"uv": [0, 0, 14, 5], "texture": "#4"},
				"east": {"uv": [0, 0, 12, 5], "texture": "#bottom"},
				"south": {"uv": [0, 0, 12, 5], "texture": "#4"},
				"west": {"uv": [0, 0, 12, 5], "texture": "#4"}
			}
		},
		{
			"from": [0, 11, 0],
			"to": [16, 12, 16],
			"faces": {
				"north": {"uv": [0, 0, 16, 1], "texture": "#bottom"},
				"east": {"uv": [0, 0, 16, 1], "texture": "#bottom"},
				"south": {"uv": [0, 0, 16, 1], "texture": "#bottom"},
				"west": {"uv": [0, 0, 16, 1], "texture": "#bottom"},
				"up": {"uv": [0, 0, 16, 16], "texture": "#5"},
				"down": {"uv": [0, 0, 15, 14], "texture": "#bottom"}
			}
		}
	],
	"groups": [
		{
			"name": "group",
			"origin": [0, 0, 0],
			"color": 0,
			"children": [
				0,
				1,
				2,
				3,
				4,
				{
					"name": "box",
					"origin": [0, 0, 0],
					"color": 0,
					"children": [5, 6, 7, 8, 9, 10]
				}
			]
		}
	]
}
