{
	"credit": "Made with Blockbench",
	"parent": "block/block",
	"textures": {
		"2": "conveyorbelts:block/netherite_filter_robotic_arm_top",
		"model": "conveyorbelts:block/netherite_robotic_arm_model",
		"particle": "conveyorbelts:block/netherite_conveyor_belt_bottom",
		"bottom": "conveyorbelts:block/netherite_conveyor_belt_bottom"
	},
	"elements": [
		{
			"name": "base",
			"from": [0, 0, 0],
			"to": [16, 1, 16],
			"faces": {
				"north": {"uv": [0, 0, 16, 1], "texture": "#bottom"},
				"east": {"uv": [0, 0, 16, 1], "texture": "#bottom"},
				"south": {"uv": [0, 0, 16, 1], "texture": "#bottom"},
				"west": {"uv": [0, 0, 16, 1], "texture": "#bottom"},
				"up": {"uv": [0, 0, 16, 16], "rotation": 90, "texture": "#2"},
				"down": {"uv": [0, 0, 16, 16], "texture": "#bottom"}
			}
		},
		{
			"from": [0.1, 0.1, 0.1],
			"to": [0.2, 0.2, 0.2],
			"faces": {
				"north": {"uv": [0, 0, 0.1, 0.1], "texture": "#model"},
				"east": {"uv": [0, 0, 0.1, 0.1], "texture": "#model"},
				"south": {"uv": [0, 0, 0.1, 0.1], "texture": "#model"},
				"west": {"uv": [0, 0, 0.1, 0.1], "texture": "#model"},
				"up": {"uv": [0, 0, 0.1, 0.1], "texture": "#model"},
				"down": {"uv": [0, 0, 0.1, 0.1], "texture": "#model"}
			}
		}
	],
	"display": {
		"thirdperson_righthand": {
			"rotation": [10, 90, 0],
			"translation": [0, 3.75, 0],
			"scale": [0.4, 0.4, 0.4]
		},
		"thirdperson_lefthand": {
			"rotation": [10, -90, 0],
			"translation": [0, 3.75, 0],
			"scale": [0.4, 0.4, 0.4]
		},
		"firstperson_righthand": {
			"rotation": [0, 102, 23],
			"translation": [0, 4.75, 1.5],
			"scale": [0.5, 0.5, 0.5]
		},
		"firstperson_lefthand": {
			"rotation": [0, -86, -23],
			"translation": [0, 4.75, 1.5],
			"scale": [0.5, 0.5, 0.5]
		},
		"ground": {
			"translation": [0, 3.5, 0],
			"scale": [0.3, 0.3, 0.3]
		},
		"gui": {
			"rotation": [90, 90, 0]
		},
		"head": {
			"rotation": [0, 90, 0],
			"translation": [0, 13.5, 0]
		},
		"fixed": {
			"rotation": [-90, -90, 0],
			"translation": [0, 0, -8]
		}
	},
	"groups": [
		{
			"name": "group",
			"origin": [0, 0, 0],
			"color": 0,
			"children": [0, 1]
		}
	]
}
