{
	"credit": "Made with Blockbench",
	"parent": "block/block",
	"textures": {
		"top": "conveyorbelts:block/wood_conveyor_belt_top_off",
		"side": "conveyorbelts:block/wood_conveyor_belt_side_off",
		"bottom": "conveyorbelts:block/wood_conveyor_belt_bottom",
		"particle": "conveyorbelts:block/wood_conveyor_belt_top_off"
	},
	"elements": [
		{
			"name": "top",
			"from": [0, 1, 0],
			"to": [1, 6, 16],
			"faces": {
				"north": {"uv": [10, 0, 15, 1], "rotation": 90, "texture": "#side"},
				"east": {"uv": [0, 0, 5, 16], "rotation": 90, "texture": "#bottom"},
				"south": {"uv": [10, 15, 15, 16], "rotation": 90, "texture": "#side"},
				"west": {"uv": [10, 0, 15, 16], "rotation": 270, "texture": "#top"},
				"up": {"uv": [0, 0, 1, 16], "texture": "#top"},
				"down": {"uv": [1, 0, 2, 16], "texture": "#bottom"}
			}
		},
		{
			"name": "top",
			"from": [0, 0, 0],
			"to": [1, 1, 16],
			"faces": {
				"north": {"uv": [10, 0, 11, 1], "rotation": 90, "texture": "#side"},
				"east": {"uv": [0, 0, 5, 16], "rotation": 90, "texture": "#bottom"},
				"south": {"uv": [10, 15, 11, 16], "rotation": 90, "texture": "#side"},
				"west": {"uv": [10, 0, 11, 16], "rotation": 270, "texture": "#bottom"},
				"up": {"uv": [0, 0, 1, 16], "texture": "#top"},
				"down": {"uv": [1, 0, 2, 16], "texture": "#bottom"}
			}
		},
		{
			"name": "top",
			"from": [15, 15.9, 0],
			"to": [16, 20.88, 16],
			"faces": {
				"north": {"uv": [10, 0, 15, 1], "rotation": 90, "texture": "#side"},
				"east": {"uv": [9, 0, 14, 16], "rotation": 90, "texture": "#top"},
				"south": {"uv": [10, 15, 15, 16], "rotation": 90, "texture": "#side"},
				"west": {"uv": [9, 0, 14, 16], "rotation": 270, "texture": "#side"},
				"up": {"uv": [0, 0, 1, 16], "texture": "#side"},
				"down": {"uv": [0, 0, 0, 0], "texture": "#side"}
			}
		},
		{
			"name": "top",
			"from": [15, 14.9, 0],
			"to": [16, 15.9, 16],
			"faces": {
				"north": {"uv": [10, 0, 11, 1], "rotation": 90, "texture": "#side"},
				"east": {"uv": [9, 0, 10, 16], "rotation": 90, "texture": "#bottom"},
				"south": {"uv": [10, 15, 11, 16], "rotation": 90, "texture": "#side"},
				"west": {"uv": [9, 0, 14, 16], "rotation": 270, "texture": "#side"},
				"up": {"uv": [0, 0, 1, 16], "texture": "#side"},
				"down": {"uv": [0, 0, 0, 0], "texture": "#side"}
			}
		},
		{
			"from": [-3.5, 1, 0.1],
			"to": [17.6, 2, 15.9],
			"rotation": {"angle": 45, "axis": "z", "origin": [0, 6, 0]},
			"faces": {
				"north": {"uv": [14, 0, 15, 16], "rotation": 270, "texture": "#side"},
				"east": {"uv": [0, 0, 16, 0], "texture": "#side"},
				"south": {"uv": [14, 0, 15, 16], "rotation": 270, "texture": "#side"},
				"west": {"uv": [0, 0, 1, 16], "rotation": 270, "texture": "#top"},
				"up": {"uv": [0, 0, 16, 16], "texture": "#side"},
				"down": {"uv": [16, 0, 0, 16], "texture": "#bottom"}
			}
		},
		{
			"from": [-2.6, 2, 0.1],
			"to": [18.5, 3, 15.9],
			"rotation": {"angle": 45, "axis": "z", "origin": [0, 6, 0]},
			"faces": {
				"north": {"uv": [13, 0, 14, 16], "rotation": 270, "texture": "#side"},
				"east": {"uv": [0, 0, 16, 0], "texture": "#side"},
				"south": {"uv": [13, 0, 14, 16], "rotation": 270, "texture": "#side"},
				"west": {"uv": [0, 0, 16, 0], "texture": "#side"},
				"up": {"uv": [0, 0, 16, 16], "texture": "#side"},
				"down": {"uv": [16, 0, 0, 16], "texture": "#side"}
			}
		},
		{
			"from": [-1.6, 3, 0.1],
			"to": [19.5, 4, 15.9],
			"rotation": {"angle": 45, "axis": "z", "origin": [0, 6, 0]},
			"faces": {
				"north": {"uv": [13, 0, 12, 16], "rotation": 270, "texture": "#side"},
				"east": {"uv": [0, 0, 16, 0], "texture": "#side"},
				"south": {"uv": [12, 0, 13, 16], "rotation": 270, "texture": "#side"},
				"west": {"uv": [0, 0, 16, 0], "texture": "#side"},
				"up": {"uv": [0, 0, 16, 16], "texture": "#side"},
				"down": {"uv": [16, 0, 0, 16], "texture": "#side"}
			}
		},
		{
			"from": [-0.6, 4, 0.1],
			"to": [20.5, 5, 15.9],
			"rotation": {"angle": 45, "axis": "z", "origin": [0, 6, 0]},
			"faces": {
				"north": {"uv": [11, 0, 12, 16], "rotation": 90, "texture": "#side"},
				"east": {"uv": [0, 0, 16, 0], "texture": "#side"},
				"south": {"uv": [11, 0, 12, 16], "rotation": 270, "texture": "#side"},
				"west": {"uv": [0, 0, 16, 0], "texture": "#side"},
				"up": {"uv": [0, 0, 16, 16], "texture": "#side"},
				"down": {"uv": [16, 0, 0, 16], "texture": "#side"}
			}
		},
		{
			"from": [0, 5, 0.1],
			"to": [22.63, 6, 15.9],
			"rotation": {"angle": 45, "axis": "z", "origin": [0, 6, 0]},
			"faces": {
				"north": {"uv": [11, 0, 10, 16], "rotation": 90, "texture": "#side"},
				"east": {"uv": [0, 0, 1, 16], "rotation": 90, "texture": "#top"},
				"south": {"uv": [10, 0, 11, 16], "rotation": 270, "texture": "#side"},
				"west": {"uv": [0, 0, 16, 0], "texture": "#side"},
				"up": {"uv": [0, 0, 16, 16], "texture": "#top"},
				"down": {"uv": [16, 0, 1, 16], "texture": "#top"}
			}
		}
	],
	"groups": [
		{
			"name": "group",
			"origin": [0, 0, 0],
			"color": 0,
			"children": [
				{
					"name": "group",
					"origin": [0, 0, 0],
					"color": 0,
					"children": [0, 1]
				},
				{
					"name": "group",
					"origin": [0, 0, 0],
					"color": 0,
					"children": []
				},
				{
					"name": "group",
					"origin": [0, 0, 0],
					"color": 0,
					"children": []
				},
				{
					"name": "group",
					"origin": [0, 0, 0],
					"color": 0,
					"children": []
				},
				{
					"name": "group",
					"origin": [0, 0, 0],
					"color": 0,
					"children": []
				},
				{
					"name": "group",
					"origin": [0, 0, 0],
					"color": 0,
					"children": []
				},
				{
					"name": "group",
					"origin": [0, 0, 0],
					"color": 0,
					"children": []
				},
				{
					"name": "group",
					"origin": [0, 0, 0],
					"color": 0,
					"children": []
				},
				{
					"name": "group",
					"origin": [0, 0, 0],
					"color": 0,
					"children": []
				},
				{
					"name": "group",
					"origin": [0, 0, 0],
					"color": 0,
					"children": []
				},
				{
					"name": "group",
					"origin": [0, 0, 0],
					"color": 0,
					"children": []
				},
				{
					"name": "group",
					"origin": [0, 0, 0],
					"color": 0,
					"children": []
				},
				{
					"name": "group",
					"origin": [0, 0, 0],
					"color": 0,
					"children": []
				},
				{
					"name": "group",
					"origin": [0, 0, 0],
					"color": 0,
					"children": []
				},
				{
					"name": "group",
					"origin": [0, 0, 0],
					"color": 0,
					"children": []
				},
				{
					"name": "group",
					"origin": [0, 0, 0],
					"color": 0,
					"children": [2, 3]
				}
			]
		},
		{
			"name": "group",
			"origin": [0, 6, 0],
			"color": 0,
			"children": []
		},
		{
			"name": "group",
			"origin": [0, 6, 0],
			"color": 0,
			"children": [4, 5, 6, 7, 8]
		}
	]
}
