{
  "schemaVersion": 1,
  "id": "conveyor-belts",
  "version": "${version}",
  "name": "Conveyor Belts",
  "description": "Mod that adds Conveyor Belts",
  "authors": [
    "BillBodkin"
  ],
  "contact": {
    "website": "cablepost.co.uk",
    "repo": "https://gitlab.com/billyg270/conveyor-belts"
  },
  "license": "MIT",
  "icon": "assets/conveyorbelts/icon.png",
  "environment": "*",
  "entrypoints": {
    "client": [
      "uk.co.cablepost.conveyorbelts.client.ConveyorBeltsClient"
    ],
    "main": [
      "uk.co.cablepost.conveyorbelts.ConveyorBelts"
    ]
  },
  "mixins": [
  ],
  "accessWidener": "conveyor_belts.accesswidener",
  "depends": {
    "fabricloader": ">=0.16.10",
    "fabric": "*",
    "minecraft": "1.21.1"

  },
  "suggests": {
  }
}
