{
    "type": "minecraft:crafting_shaped",
    "pattern": [
        "NLN",
        "I I"
    ],
    "key": {
        "N": {
            "item": "minecraft:gold_nugget"
        },
        "L": {
            "item": "minecraft:leather"
        },
        "I": {
            "item": "minecraft:gold_ingot"
        }
    },
    "result": {
        "item": "conveyorbelts:gold_conveyor_belt",
        "count": 8
    }
}
