{
    "type": "minecraft:crafting_shaped",
    "pattern": [
        "B"
    ],
    "key": {
        "B": {
            "item": "conveyorbelts:iron_conveyor_belt"
        }
    },
    "result": {
        "item": "conveyorbelts:iron_sloped_conveyor_belt_up",
        "count": 1
    }
}
