{
    "type": "minecraft:crafting_shaped",
    "pattern": [
        "PLP",
        "W W"
    ],
    "key": {
        "L": {
            "item": "minecraft:leather"
        },
        "W": {
            "tag": "minecraft:logs"
        },
        "P": {
            "tag": "minecraft:planks"
        }
    },
    "result": {
        "item": "conveyorbelts:wood_conveyor_belt",
        "count": 16
    }
}
