{
  "variants": {
    "enabled=true,facing=north": {
      "model": "conveyorbelts:block/gold_robotic_arm",
      "y": 270
    },
    "enabled=true,facing=east": {
      "model": "conveyorbelts:block/gold_robotic_arm",
      "y":  0
    },
    "enabled=true,facing=south": {
      "model": "conveyorbelts:block/gold_robotic_arm",
      "y":  90
    },
    "enabled=true,facing=west": {
      "model": "conveyorbelts:block/gold_robotic_arm",
      "y":  180
    },
    "enabled=false,facing=north": {
      "model": "conveyorbelts:block/gold_robotic_arm",
      "y": 270
    },
    "enabled=false,facing=east": {
      "model": "conveyorbelts:block/gold_robotic_arm",
      "y":  0
    },
    "enabled=false,facing=south": {
      "model": "conveyorbelts:block/gold_robotic_arm",
      "y":  90
    },
    "enabled=false,facing=west": {
      "model": "conveyorbelts:block/gold_robotic_arm",
      "y":  180
    }
  }
}
