{
  "variants": {
    "enabled=true,facing=north,outputmode=0": {
      "model": "conveyorbelts:block/wood_filter_conveyor_belt",
      "y": 270
    },
    "enabled=true,facing=east,outputmode=0": {
      "model": "conveyorbelts:block/wood_filter_conveyor_belt",
      "y":  0
    },
    "enabled=true,facing=south,outputmode=0": {
      "model": "conveyorbelts:block/wood_filter_conveyor_belt",
      "y":  90
    },
    "enabled=true,facing=west,outputmode=0": {
      "model": "conveyorbelts:block/wood_filter_conveyor_belt",
      "y":  180
    },
    "enabled=false,facing=north,outputmode=0": {
      "model": "conveyorbelts:block/wood_filter_conveyor_belt_off",
      "y": 270
    },
    "enabled=false,facing=east,outputmode=0": {
      "model": "conveyorbelts:block/wood_filter_conveyor_belt_off",
      "y":  0
    },
    "enabled=false,facing=south,outputmode=0": {
      "model": "conveyorbelts:block/wood_filter_conveyor_belt_off",
      "y":  90
    },
    "enabled=false,facing=west,outputmode=0": {
      "model": "conveyorbelts:block/wood_filter_conveyor_belt_off",
      "y":  180
    },
    "enabled=true,facing=north,outputmode=1": {
      "model": "conveyorbelts:block/wood_filter_conveyor_belt_left_back",
      "y": 180
    },
    "enabled=true,facing=east,outputmode=1": {
      "model": "conveyorbelts:block/wood_filter_conveyor_belt_left_back",
      "y":  270
    },
    "enabled=true,facing=south,outputmode=1": {
      "model": "conveyorbelts:block/wood_filter_conveyor_belt_left_back",
      "y":  0
    },
    "enabled=true,facing=west,outputmode=1": {
      "model": "conveyorbelts:block/wood_filter_conveyor_belt_left_back",
      "y":  90
    },
    "enabled=false,facing=north,outputmode=1": {
      "model": "conveyorbelts:block/wood_filter_conveyor_belt_left_back_off",
      "y": 180
    },
    "enabled=false,facing=east,outputmode=1": {
      "model": "conveyorbelts:block/wood_filter_conveyor_belt_left_back_off",
      "y":  270
    },
    "enabled=false,facing=south,outputmode=1": {
      "model": "conveyorbelts:block/wood_filter_conveyor_belt_left_back_off",
      "y":  0
    },
    "enabled=false,facing=west,outputmode=1": {
      "model": "conveyorbelts:block/wood_filter_conveyor_belt_left_back_off",
      "y":  90
    },
    "enabled=true,facing=north,outputmode=2": {
      "model": "conveyorbelts:block/wood_filter_conveyor_belt_right_back",
      "y": 0
    },
    "enabled=true,facing=east,outputmode=2": {
      "model": "conveyorbelts:block/wood_filter_conveyor_belt_right_back",
      "y":  90
    },
    "enabled=true,facing=south,outputmode=2": {
      "model": "conveyorbelts:block/wood_filter_conveyor_belt_right_back",
      "y":  180
    },
    "enabled=true,facing=west,outputmode=2": {
      "model": "conveyorbelts:block/wood_filter_conveyor_belt_right_back",
      "y":  270
    },
    "enabled=false,facing=north,outputmode=2": {
      "model": "conveyorbelts:block/wood_filter_conveyor_belt_right_back_off",
      "y": 0
    },
    "enabled=false,facing=east,outputmode=2": {
      "model": "conveyorbelts:block/wood_filter_conveyor_belt_right_back_off",
      "y":  90
    },
    "enabled=false,facing=south,outputmode=2": {
      "model": "conveyorbelts:block/wood_filter_conveyor_belt_right_back_off",
      "y":  180
    },
    "enabled=false,facing=west,outputmode=2": {
      "model": "conveyorbelts:block/wood_filter_conveyor_belt_right_back_off",
      "y":  270
    }
  }
}
